{
  "BindAddress": ":53",
  "DebugHTTPAddress": "127.0.0.1:5555",
  "PrimaryDNS": [
    {
      "Name": "Google",
      "Address": "https://dns.google/dns-query",
      "Protocol": "https",
      "SOCKS5Address": "",
      "Timeout": 6,
      "EDNSClientSubnet": {
        "Policy": "auto",
        "ExternalIP": "",
        "NoCookie": true
      }
    }
  ],
  "AlternativeDNS": [
    {
      "Name": "OpenDNS",
      "Address": "https://doh.opendns.com/dns-query",
      "Protocol": "https",
      "SOCKS5Address": "",
      "Timeout": 6,
      "EDNSClientSubnet": {
        "Policy": "auto",
        "ExternalIP": "",
        "NoCookie": true
      }
    }
  ],
  "OnlyPrimaryDNS": false,
  "IPv6UseAlternativeDNS": false,
  "AlternativeDNSConcurrent": false,
  "WhenPrimaryDNSAnswerNoneUse": "PrimaryDNS",
  "IPNetworkFile": {
    "Primary": "./ip_network_primary_sample",
    "Alternative": "./ip_network_alternative_sample"
  },
  "DomainFile": {
    "Primary": "./domain_primary_sample",
    "Alternative": "./domain_alternative_sample",
    "Matcher":  "full-map"
  },
  "HostsFile": {
    "HostsFile": "./hosts_sample",
    "Finder": "full-map"
  },
  "MinimumTTL": 0,
  "DomainTTLFile" : "./domain_ttl_sample",
  "CacheSize" : 0,
  "RejectQType": [255]
}